<svg width="36" height="49" viewBox="0 0 36 49" fill="none" xmlns="http://www.w3.org/2000/svg">
<path d="M0.900414 6.18003L0.000414313 6.78003V20.02C-0.0259862 25.5232 1.20965 30.9592 3.61236 35.9103C6.01507 40.8613 9.5209 45.1956 13.8604 48.58L14.4004 49H21.6004L22.1404 48.58C26.4799 45.1956 29.9858 40.8613 32.3885 35.9103C34.7912 30.9592 36.0268 25.5232 36.0004 20.02V6.78003L35.1004 6.18003C30.0347 2.79887 24.0808 0.994385 17.9904 0.994385C11.9 0.994385 5.94609 2.79887 0.880414 6.18003H0.900414ZM16.0004 45H15.8004C12.0924 41.9822 9.10779 38.1719 7.06579 33.849C5.02379 29.5262 3.97634 24.8008 4.00041 20.02V9.00003C7.64073 6.79583 11.7549 5.49301 16.0004 5.20003V45ZM20.0004 5.14003C24.251 5.45125 28.3655 6.77474 32.0004 9.00003V20.06C32.0185 24.8341 30.9682 29.5517 28.9264 33.8671C26.8846 38.1825 23.9031 41.9864 20.2004 45H20.0004V5.14003Z" fill="#53B561"/>
</svg>
